{
    "key": "group_5b13bb8618b3c",
    "title": "Flexible Content",
    "fields": [
        {
            "key": "field_5b13bb8ea3f25",
            "label": "Flexible Content",
            "name": "flexible_content",
            "type": "flexible_content",
            "instructions": "",
            "required": 0,
            "conditional_logic": 0,
            "wrapper": {
                "width": "",
                "class": "",
                "id": ""
            },
            "layouts": {
                "layout_5c124534d5de9": {
                    "key": "layout_5c124534d5de9",
                    "name": "front-page",
                    "label": "Front Page (\/)",
                    "display": "block",
                    "sub_fields": [
                        {
                            "key": "field_5c124eaef3992",
                            "label": "pre Title",
                            "name": "front_pre_title",
                            "type": "text",
                            "instructions": "",
                            "required": 0,
                            "conditional_logic": 0,
                            "wrapper": {
                                "width": "",
                                "class": "",
                                "id": ""
                            },
                            "default_value": "",
                            "placeholder": "",
                            "prepend": "",
                            "append": "",
                            "maxlength": ""
                        },
                        {
                            "key": "field_5c124547d5deb",
                            "label": "Title",
                            "name": "front_title",
                            "type": "text",
                            "instructions": "",
                            "required": 0,
                            "conditional_logic": 0,
                            "wrapper": {
                                "width": "",
                                "class": "",
                                "id": ""
                            },
                            "default_value": "",
                            "placeholder": "",
                            "prepend": "",
                            "append": "",
                            "maxlength": ""
                        },
                        {
                            "key": "field_5c124534d5dea",
                            "label": "subtitle text",
                            "name": "front_subtitle",
                            "type": "textarea",
                            "instructions": "",
                            "required": 0,
                            "conditional_logic": 0,
                            "wrapper": {
                                "width": "",
                                "class": "",
                                "id": ""
                            },
                            "default_value": "",
                            "placeholder": "",
                            "maxlength": "",
                            "rows": "",
                            "new_lines": ""
                        }
                    ],
                    "min": "",
                    "max": ""
                },
                "layout_5c124e656b873": {
                    "key": "layout_5c124e656b873",
                    "name": "welcome-page",
                    "label": "Welcome Page (\/hub)",
                    "display": "block",
                    "sub_fields": [
                        {
                            "key": "field_5c124e656b875",
                            "label": "welcome message",
                            "name": "welcome_message",
                            "type": "textarea",
                            "instructions": "",
                            "required": 0,
                            "conditional_logic": 0,
                            "wrapper": {
                                "width": "",
                                "class": "",
                                "id": ""
                            },
                            "default_value": "",
                            "placeholder": "",
                            "maxlength": "",
                            "rows": "",
                            "new_lines": ""
                        }
                    ],
                    "min": "",
                    "max": ""
                },
                "layout_5c17c30445589": {
                    "key": "layout_5c17c30445589",
                    "name": "timeline",
                    "label": "timeline",
                    "display": "block",
                    "sub_fields": [
                        {
                            "key": "field_5c17c53ef84d6",
                            "label": "timeline",
                            "name": "timeline",
                            "type": "repeater",
                            "instructions": "",
                            "required": 0,
                            "conditional_logic": 0,
                            "wrapper": {
                                "width": "",
                                "class": "",
                                "id": ""
                            },
                            "collapsed": "",
                            "min": 0,
                            "max": 0,
                            "layout": "table",
                            "button_label": "",
                            "sub_fields": [
                                {
                                    "key": "field_5c17c3044558a",
                                    "label": "timeline year",
                                    "name": "timeline_year",
                                    "type": "text",
                                    "instructions": "",
                                    "required": 0,
                                    "conditional_logic": 0,
                                    "wrapper": {
                                        "width": "",
                                        "class": "",
                                        "id": ""
                                    },
                                    "default_value": "",
                                    "placeholder": "",
                                    "prepend": "",
                                    "append": "",
                                    "maxlength": ""
                                },
                                {
                                    "key": "field_5c17c3324558b",
                                    "label": "timeline image",
                                    "name": "timeline_image",
                                    "type": "image",
                                    "instructions": "",
                                    "required": 0,
                                    "conditional_logic": 0,
                                    "wrapper": {
                                        "width": "",
                                        "class": "",
                                        "id": ""
                                    },
                                    "return_format": "array",
                                    "preview_size": "thumbnail",
                                    "library": "all",
                                    "min_width": "",
                                    "min_height": "",
                                    "min_size": "",
                                    "max_width": "",
                                    "max_height": "",
                                    "max_size": "",
                                    "mime_types": ""
                                },
                                {
                                    "key": "field_5c17c33d4558c",
                                    "label": "timeline text",
                                    "name": "timeline_text",
                                    "type": "textarea",
                                    "instructions": "",
                                    "required": 0,
                                    "conditional_logic": 0,
                                    "wrapper": {
                                        "width": "",
                                        "class": "",
                                        "id": ""
                                    },
                                    "default_value": "",
                                    "placeholder": "",
                                    "maxlength": "",
                                    "rows": "",
                                    "new_lines": ""
                                }
                            ]
                        }
                    ],
                    "min": "",
                    "max": ""
                }
            },
            "button_label": "Add website content . . .",
            "min": "",
            "max": ""
        }
    ],
    "location": [
        [
            {
                "param": "post_type",
                "operator": "==",
                "value": "page"
            }
        ],
        [
            {
                "param": "post_type",
                "operator": "==",
                "value": "post"
            }
        ]
    ],
    "menu_order": 0,
    "position": "normal",
    "style": "default",
    "label_placement": "top",
    "instruction_placement": "label",
    "hide_on_screen": [
        "the_content",
        "revisions",
        "slug",
        "author"
    ],
    "active": 1,
    "description": "",
    "modified": 1545065782
}